module github.com/mongodb/mongodb-kubernetes-operator

go 1.19

require (
	github.com/blang/semver v3.5.1+incompatible
	github.com/go-logr/logr v1.2.3
	github.com/hashicorp/go-multierror v1.1.1
	github.com/imdario/mergo v0.3.13
	github.com/spf13/cast v1.5.0
	github.com/stretchr/objx v0.5.0
	github.com/stretchr/testify v1.8.1
	github.com/xdg/stringprep v1.0.3
	go.mongodb.org/mongo-driver v1.11.1
	go.uber.org/zap v1.23.0
	gopkg.in/natefinch/lumberjack.v2 v2.0.0
	k8s.io/api v0.23.15
	k8s.io/apimachinery v0.23.15
	k8s.io/client-go v0.23.15
	sigs.k8s.io/controller-runtime v0.11.2
	sigs.k8s.io/yaml v1.3.0
)

require (
	cloud.google.com/go v0.81.0 // indirect
	github.com/beorn7/perks v1.0.1 // indirect
	github.com/cespare/xxhash/v2 v2.1.2 // indirect
	github.com/davecgh/go-spew v1.1.1 // indirect
	github.com/evanphx/json-patch v4.12.0+incompatible // indirect
	github.com/fsnotify/fsnotify v1.5.1 // indirect
	github.com/gogo/protobuf v1.3.2 // indirect
	github.com/golang/groupcache v0.0.0-20210331224755-41bb18bfe9da // indirect
	github.com/golang/protobuf v1.5.2 // indirect
	github.com/golang/snappy v0.0.1 // indirect
	github.com/google/go-cmp v0.5.7 // indirect
	github.com/google/gofuzz v1.1.0 // indirect
	github.com/google/uuid v1.1.2 // indirect
	github.com/googleapis/gnostic v0.5.5 // indirect
	github.com/hashicorp/errwrap v1.0.0 // indirect
	github.com/json-iterator/go v1.1.12 // indirect
	github.com/klauspost/compress v1.13.6 // indirect
	github.com/matttproud/golang_protobuf_extensions v1.0.2-0.20181231171920-c182affec369 // indirect
	github.com/moby/spdystream v0.2.0 // indirect
	github.com/modern-go/concurrent v0.0.0-20180306012644-bacd9c7ef1dd // indirect
	github.com/modern-go/reflect2 v1.0.2 // indirect
	github.com/montanaflynn/stats v0.0.0-20171201202039-1bf9dbcd8cbe // indirect
	github.com/pkg/errors v0.9.1 // indirect
	github.com/pmezard/go-difflib v1.0.0 // indirect
	github.com/prometheus/client_golang v1.12.1 // indirect
	github.com/prometheus/client_model v0.2.0 // indirect
	github.com/prometheus/common v0.32.1 // indirect
	github.com/prometheus/procfs v0.7.3 // indirect
	github.com/spf13/pflag v1.0.5 // indirect
	github.com/xdg-go/pbkdf2 v1.0.0 // indirect
	github.com/xdg-go/scram v1.1.1 // indirect
	github.com/xdg-go/stringprep v1.0.3 // indirect
	github.com/youmark/pkcs8 v0.0.0-20181117223130-1be2e3e5546d // indirect
	go.uber.org/atomic v1.7.0 // indirect
	go.uber.org/multierr v1.6.0 // indirect
	golang.org/x/crypto v0.0.0-20220622213112-05595931fe9d // indirect
	golang.org/x/net v0.0.0-20220127200216-cd36cc0744dd // indirect
	golang.org/x/oauth2 v0.0.0-20211104180415-d3ed0bb246c8 // indirect
	golang.org/x/sync v0.0.0-20210220032951-036812b2e83c // indirect
	golang.org/x/sys v0.0.0-20220209214540-3681064d5158 // indirect
	golang.org/x/term v0.0.0-20210927222741-03fcf44c2211 // indirect
	golang.org/x/text v0.3.7 // indirect
	golang.org/x/time v0.0.0-20220210224613-90d013bbcef8 // indirect
	gomodules.xyz/jsonpatch/v2 v2.2.0 // indirect
	google.golang.org/appengine v1.6.7 // indirect
	google.golang.org/protobuf v1.27.1 // indirect
	gopkg.in/inf.v0 v0.9.1 // indirect
	gopkg.in/yaml.v2 v2.4.0 // indirect
	gopkg.in/yaml.v3 v3.0.1 // indirect
	k8s.io/apiextensions-apiserver v0.23.15 // indirect
	k8s.io/component-base v0.23.15 // indirect
	k8s.io/klog/v2 v2.60.1 // indirect
	k8s.io/kube-openapi v0.0.0-20211115234752-e816edb12b65 // indirect
	k8s.io/utils v0.0.0-20220210201930-3a6ce19ff2f9 // indirect
	sigs.k8s.io/json v0.0.0-20211208200746-9f7c6b3444d2 // indirect
	sigs.k8s.io/structured-merge-diff/v4 v4.2.3 // indirect
)

replace github.com/docker/docker => github.com/moby/moby v17.12.0-ce-rc1.0.20200309214505-aa6a9891b09c+incompatible // Required by Helm

replace github.com/Azure/go-autorest => github.com/Azure/go-autorest v13.3.2+incompatible // Required by OLM
