module github.com/haproxytech/kubernetes-ingress

go 1.19

require (
	github.com/fasthttp/router v1.4.12
	github.com/go-test/deep v1.0.8
	github.com/google/renameio v1.0.1
	github.com/haproxytech/client-native/v2 v2.5.2-0.20220126142624-4a2781a21376
	github.com/haproxytech/client-native/v3 v3.1.1-0.20220520145135-9afaaf96bc7f
	github.com/haproxytech/config-parser/v4 v4.0.0-rc2.0.20220428133329-7d0ec01198d4
	github.com/jessevdk/go-flags v1.4.0
	github.com/pires/go-proxyproto v0.6.2
	github.com/prometheus/client_golang v1.14.0
	github.com/stretchr/testify v1.8.1
	github.com/valyala/fasthttp v1.44.0
	go.uber.org/automaxprocs v1.5.1
	k8s.io/api v0.25.2
	k8s.io/apimachinery v0.25.2
	k8s.io/client-go v0.25.2
)

require (
	github.com/PuerkitoBio/purell v1.1.1 // indirect
	github.com/PuerkitoBio/urlesc v0.0.0-20170810143723-de5bf2ad4578 // indirect
	github.com/andybalholm/brotli v1.0.4 // indirect
	github.com/asaskevich/govalidator v0.0.0-20200108200545-475eaeb16496 // indirect
	github.com/beorn7/perks v1.0.1 // indirect
	github.com/cespare/xxhash/v2 v2.1.2 // indirect
	github.com/davecgh/go-spew v1.1.1 // indirect
	github.com/emicklei/go-restful/v3 v3.8.0 // indirect
	github.com/evanphx/json-patch v4.12.0+incompatible // indirect
	github.com/go-logr/logr v1.2.3 // indirect
	github.com/go-openapi/analysis v0.19.10 // indirect
	github.com/go-openapi/errors v0.19.4 // indirect
	github.com/go-openapi/jsonpointer v0.19.5 // indirect
	github.com/go-openapi/jsonreference v0.19.5 // indirect
	github.com/go-openapi/loads v0.19.5 // indirect
	github.com/go-openapi/runtime v0.19.15 // indirect
	github.com/go-openapi/spec v0.19.7 // indirect
	github.com/go-openapi/strfmt v0.19.5 // indirect
	github.com/go-openapi/swag v0.19.14 // indirect
	github.com/go-openapi/validate v0.19.3 // indirect
	github.com/gofrs/flock v0.8.1 // indirect
	github.com/gogo/protobuf v1.3.2 // indirect
	github.com/golang/protobuf v1.5.2 // indirect
	github.com/google/gnostic v0.5.7-v3refs // indirect
	github.com/google/go-cmp v0.5.8 // indirect
	github.com/google/gofuzz v1.1.0 // indirect
	github.com/google/uuid v1.3.0 // indirect
	github.com/haproxytech/go-logger v1.1.0 // indirect
	github.com/imdario/mergo v0.3.13 // indirect
	github.com/josharian/intern v1.0.0 // indirect
	github.com/json-iterator/go v1.1.12 // indirect
	github.com/kballard/go-shellquote v0.0.0-20180428030007-95032a82bc51 // indirect
	github.com/klauspost/compress v1.15.9 // indirect
	github.com/kr/pretty v0.3.0 // indirect
	github.com/mailru/easyjson v0.7.6 // indirect
	github.com/matttproud/golang_protobuf_extensions v1.0.1 // indirect
	github.com/mitchellh/mapstructure v1.2.2 // indirect
	github.com/modern-go/concurrent v0.0.0-20180306012644-bacd9c7ef1dd // indirect
	github.com/modern-go/reflect2 v1.0.2 // indirect
	github.com/munnerz/goautoneg v0.0.0-20191010083416-a7dc8b61c822 // indirect
	github.com/pkg/errors v0.9.1 // indirect
	github.com/pmezard/go-difflib v1.0.0 // indirect
	github.com/prometheus/client_model v0.3.0 // indirect
	github.com/prometheus/common v0.37.0 // indirect
	github.com/prometheus/procfs v0.8.0 // indirect
	github.com/savsgio/gotils v0.0.0-20220530130905-52f3993e8d6d // indirect
	github.com/spf13/pflag v1.0.5 // indirect
	github.com/valyala/bytebufferpool v1.0.0 // indirect
	go.mongodb.org/mongo-driver v1.10.3 // indirect
	golang.org/x/net v0.4.0 // indirect
	golang.org/x/oauth2 v0.0.0-20220223155221-ee480838109b // indirect
	golang.org/x/sys v0.3.0 // indirect
	golang.org/x/term v0.3.0 // indirect
	golang.org/x/text v0.5.0 // indirect
	golang.org/x/time v0.0.0-20220922220347-f3bd1da661af // indirect
	google.golang.org/appengine v1.6.7 // indirect
	google.golang.org/protobuf v1.28.1 // indirect
	gopkg.in/inf.v0 v0.9.1 // indirect
	gopkg.in/yaml.v2 v2.4.0 // indirect
	gopkg.in/yaml.v3 v3.0.1 // indirect
	k8s.io/klog/v2 v2.70.1 // indirect
	k8s.io/kube-openapi v0.0.0-20220803162953-67bda5d908f1 // indirect
	k8s.io/utils v0.0.0-20220728103510-ee6ede2d64ed // indirect
	sigs.k8s.io/json v0.0.0-20220713155537-f223a00ba0e2 // indirect
	sigs.k8s.io/structured-merge-diff/v4 v4.2.3 // indirect
	sigs.k8s.io/yaml v1.2.0 // indirect
)
